module rest-api-golang

go 1.14

require (
	github.com/denisenkom/go-mssqldb v0.0.0-20190515213511-eb9f6a1743f3 // indirect
	github.com/dgrijalva/jwt-go v3.2.0+incompatible
	github.com/erikstmartin/go-testdb v0.0.0-20160219214506-8d10e4a1bae5 // indirect
	github.com/go-sql-driver/mysql v1.4.1 // indirect
	github.com/gorilla/mux v1.7.2
	github.com/jinzhu/gorm v1.9.1
	github.com/jinzhu/inflection v0.0.0-20180308033659-04140366298a // indirect
	github.com/jinzhu/now v1.0.0 // indirect
	github.com/joho/godotenv v1.3.0
	github.com/lib/pq v1.0.0 // indirect
	github.com/mattn/go-sqlite3 v1.10.0 // indirect
	golang.org/x/crypto v0.0.0-20190325154230-a5d413f7728c
)
